{
  "session": {
    "new": true,
    "sessionId": "SessionId.0175c0f0-a470-4061-ad2c-55e852ed1557",
    "application": {
      "applicationId": "abc123"
    },
    "attributes": {},
    "user": {
      "userId": "amzn1.ask.account.AETOEODX2CAYJI6TVV6JBUQLBZ574ASTCSU63DFMAOHC6L4BLVCN3VLPSXQFBOOPZ4DNLIZDXU6OE7YDZ7YFQLCCLXJ4VJFUCJZ2ZIZYLK5UPH7IU4EEOWQ4Z3VZ434SJJAHMTBX563RMHHB2KSGVJCGIYVO3ZKLP2BMCXO64LMKQUPYX4VNVTAAKY7333YO2LLXZKBLF4IWXVA"
    }
  },
  "request": {
    "type": "LaunchRequest",
    "requestId": "EdwRequestId.917642ff-7721-4b9f-a4ba-bff9fe89c287",
    "locale": "de-DE",
    "timestamp": "2018-01-24T21:08:44Z"
  },
  "context": {
    "AudioPlayer": {
      "playerActivity": "IDLE"
    },
    "System": {
      "application": {
        "applicationId": "abc123"
      },
      "user": {
        "userId": "amzn1.ask.account.AETOEODX2CAYJI6TVV6JBUQLBZ574ASTCSU63DFMAOHC6L4BLVCN3VLPSXQFBOOPZ4DNLIZDXU6OE7YDZ7YFQLCCLXJ4VJFUCJZ2ZIZYLK5UPH7IU4EEOWQ4Z3VZ434SJJAHMTBX563RMHHB2KSGVJCGIYVO3ZKLP2BMCXO64LMKQUPYX4VNVTAAKY7333YO2LLXZKBLF4IWXVA"
      },
      "device": {
        "supportedInterfaces": {}
      }
    }
  },
  "version": "1.0"
}